^C:\FH\PHS\PARTICLE\PARTICLE2\PARTICLE\STDAFX.CPP
C:\FH\PHS\PARTICLE\PARTICLE2\PARTICLE\RELEASE\PARTICLE.PCH
C:\FH\PHS\PARTICLE\PARTICLE2\PARTICLE\RELEASE\STDAFX.OBJ
C:\FH\PHS\PARTICLE\PARTICLE2\PARTICLE\RELEASE\VC110.PDB
^C:\FH\PHS\PARTICLE\PARTICLE2\PARTICLE\COLLIDER.CPP|C:\FH\PHS\PARTICLE\PARTICLE2\PARTICLE\DRAGGENERATOR.CPP|C:\FH\PHS\PARTICLE\PARTICLE2\PARTICLE\FORCEGENERATOR.CPP|C:\FH\PHS\PARTICLE\PARTICLE2\PARTICLE\FRICTIONGENERATOR.CPP|C:\FH\PHS\PARTICLE\PARTICLE2\PARTICLE\GRAVITYGENERATOR.CPP|C:\FH\PHS\PARTICLE\PARTICLE2\PARTICLE\INTEGRATOR.CPP|C:\FH\PHS\PARTICLE\PARTICLE2\PARTICLE\MAIN.CPP|C:\FH\PHS\PARTICLE\PARTICLE2\PARTICLE\PARTICLE.CPP
C:\FH\PHS\PARTICLE\PARTICLE2\PARTICLE\RELEASE\PARTICLE.OBJ
C:\FH\PHS\PARTICLE\PARTICLE2\PARTICLE\RELEASE\MAIN.OBJ
C:\FH\PHS\PARTICLE\PARTICLE2\PARTICLE\RELEASE\INTEGRATOR.OBJ
C:\FH\PHS\PARTICLE\PARTICLE2\PARTICLE\RELEASE\GRAVITYGENERATOR.OBJ
C:\FH\PHS\PARTICLE\PARTICLE2\PARTICLE\RELEASE\FRICTIONGENERATOR.OBJ
C:\FH\PHS\PARTICLE\PARTICLE2\PARTICLE\RELEASE\FORCEGENERATOR.OBJ
C:\FH\PHS\PARTICLE\PARTICLE2\PARTICLE\RELEASE\DRAGGENERATOR.OBJ
C:\FH\PHS\PARTICLE\PARTICLE2\PARTICLE\RELEASE\COLLIDER.OBJ
^C:\FH\PHS\PARTICLE\PARTICLE2\PARTICLE\DRAGGENERATOR.CPP
C:\FH\PHS\PARTICLE\PARTICLE2\PARTICLE\RELEASE\VC110.PDB
^C:\FH\PHS\PARTICLE\PARTICLE2\PARTICLE\FORCEGENERATOR.CPP
C:\FH\PHS\PARTICLE\PARTICLE2\PARTICLE\RELEASE\VC110.PDB
^C:\FH\PHS\PARTICLE\PARTICLE2\PARTICLE\FRICTIONGENERATOR.CPP
C:\FH\PHS\PARTICLE\PARTICLE2\PARTICLE\RELEASE\VC110.PDB
^C:\FH\PHS\PARTICLE\PARTICLE2\PARTICLE\GRAVITYGENERATOR.CPP
C:\FH\PHS\PARTICLE\PARTICLE2\PARTICLE\RELEASE\VC110.PDB
^C:\FH\PHS\PARTICLE\PARTICLE2\PARTICLE\INTEGRATOR.CPP
C:\FH\PHS\PARTICLE\PARTICLE2\PARTICLE\RELEASE\VC110.PDB
^C:\FH\PHS\PARTICLE\PARTICLE2\PARTICLE\PARTICLE.CPP
C:\FH\PHS\PARTICLE\PARTICLE2\PARTICLE\RELEASE\VC110.PDB
^C:\FH\PHS\PARTICLE\PARTICLE2\PARTICLE\MAIN.CPP
C:\FH\PHS\PARTICLE\PARTICLE2\PARTICLE\RELEASE\MAIN.OBJ
C:\FH\PHS\PARTICLE\PARTICLE2\PARTICLE\RELEASE\VC110.PDB
^C:\FH\PHS\PARTICLE\PARTICLE2\PARTICLE\COLLIDER.CPP
C:\FH\PHS\PARTICLE\PARTICLE2\PARTICLE\RELEASE\COLLIDER.OBJ
C:\FH\PHS\PARTICLE\PARTICLE2\PARTICLE\RELEASE\VC110.PDB
^C:\FH\PHS\PARTICLE\SPRING\PARTICLE\STDAFX.CPP
C:\FH\PHS\PARTICLE\SPRING\PARTICLE\RELEASE\PARTICLE.PCH
C:\FH\PHS\PARTICLE\SPRING\PARTICLE\RELEASE\STDAFX.OBJ
C:\FH\PHS\PARTICLE\SPRING\PARTICLE\RELEASE\VC110.PDB
^C:\FH\PHS\PARTICLE\SPRING\PARTICLE\DRAGGENERATOR.CPP|C:\FH\PHS\PARTICLE\SPRING\PARTICLE\FORCEGENERATOR.CPP|C:\FH\PHS\PARTICLE\SPRING\PARTICLE\GRAVITYGENERATOR.CPP|C:\FH\PHS\PARTICLE\SPRING\PARTICLE\INTEGRATOR.CPP|C:\FH\PHS\PARTICLE\SPRING\PARTICLE\MAIN.CPP|C:\FH\PHS\PARTICLE\SPRING\PARTICLE\PARTICLE.CPP|C:\FH\PHS\PARTICLE\SPRING\PARTICLE\SPRING.CPP
C:\FH\PHS\PARTICLE\SPRING\PARTICLE\RELEASE\SPRING.OBJ
C:\FH\PHS\PARTICLE\SPRING\PARTICLE\RELEASE\PARTICLE.OBJ
C:\FH\PHS\PARTICLE\SPRING\PARTICLE\RELEASE\MAIN.OBJ
C:\FH\PHS\PARTICLE\SPRING\PARTICLE\RELEASE\INTEGRATOR.OBJ
C:\FH\PHS\PARTICLE\SPRING\PARTICLE\RELEASE\GRAVITYGENERATOR.OBJ
C:\FH\PHS\PARTICLE\SPRING\PARTICLE\RELEASE\FORCEGENERATOR.OBJ
C:\FH\PHS\PARTICLE\SPRING\PARTICLE\RELEASE\DRAGGENERATOR.OBJ
^C:\FH\PHS\PARTICLE\SPRING\PARTICLE\DRAGGENERATOR.CPP
C:\FH\PHS\PARTICLE\SPRING\PARTICLE\RELEASE\VC110.PDB
^C:\FH\PHS\PARTICLE\SPRING\PARTICLE\FORCEGENERATOR.CPP
C:\FH\PHS\PARTICLE\SPRING\PARTICLE\RELEASE\VC110.PDB
^C:\FH\PHS\PARTICLE\SPRING\PARTICLE\GRAVITYGENERATOR.CPP
C:\FH\PHS\PARTICLE\SPRING\PARTICLE\RELEASE\VC110.PDB
^C:\FH\PHS\PARTICLE\SPRING\PARTICLE\PARTICLE.CPP
C:\FH\PHS\PARTICLE\SPRING\PARTICLE\RELEASE\PARTICLE.OBJ
C:\FH\PHS\PARTICLE\SPRING\PARTICLE\RELEASE\VC110.PDB
^C:\FH\PHS\PARTICLE\SPRING\PARTICLE\INTEGRATOR.CPP|C:\FH\PHS\PARTICLE\SPRING\PARTICLE\MAIN.CPP
C:\FH\PHS\PARTICLE\SPRING\PARTICLE\RELEASE\MAIN.OBJ
C:\FH\PHS\PARTICLE\SPRING\PARTICLE\RELEASE\INTEGRATOR.OBJ
^C:\FH\PHS\PARTICLE\SPRING\PARTICLE\INTEGRATOR.CPP
C:\FH\PHS\PARTICLE\SPRING\PARTICLE\RELEASE\VC110.PDB
^C:\FH\PHS\PARTICLE\SPRING\PARTICLE\MAIN.CPP|C:\FH\PHS\PARTICLE\SPRING\PARTICLE\SPRING.CPP
C:\FH\PHS\PARTICLE\SPRING\PARTICLE\RELEASE\SPRING.OBJ
C:\FH\PHS\PARTICLE\SPRING\PARTICLE\RELEASE\MAIN.OBJ
^C:\FH\PHS\PARTICLE\SPRING\PARTICLE\MAIN.CPP
C:\FH\PHS\PARTICLE\SPRING\PARTICLE\RELEASE\VC110.PDB
^C:\FH\PHS\PARTICLE\SPRING\PARTICLE\SPRING.CPP
C:\FH\PHS\PARTICLE\SPRING\PARTICLE\RELEASE\SPRING.OBJ
C:\FH\PHS\PARTICLE\SPRING\PARTICLE\RELEASE\VC110.PDB
