^C:\FH\PHS\PARTICLE\PARTICLE2\PARTICLE\RELEASE\COLLIDER.OBJ|C:\FH\PHS\PARTICLE\PARTICLE2\PARTICLE\RELEASE\DRAGGENERATOR.OBJ|C:\FH\PHS\PARTICLE\PARTICLE2\PARTICLE\RELEASE\FORCEGENERATOR.OBJ|C:\FH\PHS\PARTICLE\PARTICLE2\PARTICLE\RELEASE\FRICTIONGENERATOR.OBJ|C:\FH\PHS\PARTICLE\PARTICLE2\PARTICLE\RELEASE\GRAVITYGENERATOR.OBJ|C:\FH\PHS\PARTICLE\PARTICLE2\PARTICLE\RELEASE\INTEGRATOR.OBJ|C:\FH\PHS\PARTICLE\PARTICLE2\PARTICLE\RELEASE\MAIN.OBJ|C:\FH\PHS\PARTICLE\PARTICLE2\PARTICLE\RELEASE\PARTICLE.OBJ|C:\FH\PHS\PARTICLE\PARTICLE2\PARTICLE\RELEASE\STDAFX.OBJ
C:\WINDOWS\GLOBALIZATION\SORTING\SORTDEFAULT.NLS
C:\PROGRAM FILES (X86)\WINDOWS KITS\8.0\LIB\WIN8\UM\X86\KERNEL32.LIB
C:\PROGRAM FILES (X86)\WINDOWS KITS\8.0\LIB\WIN8\UM\X86\USER32.LIB
C:\PROGRAM FILES (X86)\WINDOWS KITS\8.0\LIB\WIN8\UM\X86\GDI32.LIB
C:\PROGRAM FILES (X86)\WINDOWS KITS\8.0\LIB\WIN8\UM\X86\WINSPOOL.LIB
C:\PROGRAM FILES (X86)\WINDOWS KITS\8.0\LIB\WIN8\UM\X86\COMDLG32.LIB
C:\PROGRAM FILES (X86)\WINDOWS KITS\8.0\LIB\WIN8\UM\X86\ADVAPI32.LIB
C:\PROGRAM FILES (X86)\WINDOWS KITS\8.0\LIB\WIN8\UM\X86\SHELL32.LIB
C:\PROGRAM FILES (X86)\WINDOWS KITS\8.0\LIB\WIN8\UM\X86\OLE32.LIB
C:\PROGRAM FILES (X86)\WINDOWS KITS\8.0\LIB\WIN8\UM\X86\OLEAUT32.LIB
C:\PROGRAM FILES (X86)\WINDOWS KITS\8.0\LIB\WIN8\UM\X86\UUID.LIB
C:\PROGRAM FILES (X86)\WINDOWS KITS\8.0\LIB\WIN8\UM\X86\ODBC32.LIB
C:\PROGRAM FILES (X86)\WINDOWS KITS\8.0\LIB\WIN8\UM\X86\ODBCCP32.LIB
C:\FH\PHS\PARTICLE\PARTICLE2\PARTICLE\RELEASE\COLLIDER.OBJ
C:\FH\PHS\PARTICLE\PARTICLE2\PARTICLE\RELEASE\DRAGGENERATOR.OBJ
C:\FH\PHS\PARTICLE\PARTICLE2\PARTICLE\RELEASE\FORCEGENERATOR.OBJ
C:\FH\PHS\PARTICLE\PARTICLE2\PARTICLE\RELEASE\FRICTIONGENERATOR.OBJ
C:\FH\PHS\PARTICLE\PARTICLE2\PARTICLE\RELEASE\GRAVITYGENERATOR.OBJ
C:\FH\PHS\PARTICLE\PARTICLE2\PARTICLE\RELEASE\INTEGRATOR.OBJ
C:\FH\PHS\PARTICLE\PARTICLE2\PARTICLE\RELEASE\MAIN.OBJ
C:\FH\PHS\PARTICLE\PARTICLE2\PARTICLE\RELEASE\PARTICLE.OBJ
C:\FH\PHS\PARTICLE\PARTICLE2\PARTICLE\RELEASE\STDAFX.OBJ
C:\PROGRAM FILES (X86)\MICROSOFT VISUAL STUDIO 11.0\VC\BIN\C2.DLL
C:\PROGRAM FILES (X86)\MICROSOFT VISUAL STUDIO 11.0\VC\LIB\LIBCPMTD.LIB
C:\USERS\CHRONSTER\DOCUMENTS\VISUAL STUDIO 2012\CLANLIB 3.0.0\LIB\WIN32\CLANCORE-STATIC-MT-DEBUG.LIB
C:\USERS\CHRONSTER\DOCUMENTS\VISUAL STUDIO 2012\CLANLIB 3.0.0\LIB\WIN32\CLANAPP-STATIC-MT-DEBUG.LIB
C:\USERS\CHRONSTER\DOCUMENTS\VISUAL STUDIO 2012\CLANLIB 3.0.0\LIB\WIN32\CLANDISPLAY-STATIC-MT-DEBUG.LIB
C:\PROGRAM FILES (X86)\WINDOWS KITS\8.0\LIB\WIN8\UM\X86\WINMM.LIB
C:\PROGRAM FILES (X86)\MICROSOFT VISUAL STUDIO 11.0\VC\LIB\LIBCMTD.LIB
C:\PROGRAM FILES (X86)\MICROSOFT VISUAL STUDIO 11.0\VC\LIB\OLDNAMES.LIB
C:\USERS\CHRONSTER\DOCUMENTS\VISUAL STUDIO 2012\CLANLIB 3.0.0\LIB\WIN32\CLANGL-STATIC-MT-DEBUG.LIB
C:\PROGRAM FILES (X86)\WINDOWS KITS\8.0\LIB\WIN8\UM\X86\OPENGL32.LIB
C:\PROGRAM FILES (X86)\WINDOWS KITS\8.0\LIB\WIN8\UM\X86\GLU32.LIB
C:\PROGRAM FILES (X86)\WINDOWS KITS\8.0\LIB\WIN8\UM\X86\DBGHELP.LIB
C:\PROGRAM FILES (X86)\WINDOWS KITS\8.0\LIB\WIN8\UM\X86\COMCTL32.LIB
C:\PROGRAM FILES (X86)\MICROSOFT VISUAL STUDIO 11.0\VC\BIN\1033\LINKUI.DLL
C:\PROGRAM FILES (X86)\WINDOWS KITS\8.0\BIN\X86\RC.EXE
C:\PROGRAM FILES (X86)\MICROSOFT VISUAL STUDIO 11.0\VC\BIN\CVTRES.EXE
C:\WINDOWS\SYSTEM32\TZRES.DLL
^C:\FH\PHS\PARTICLE\SPRING\PARTICLE\RELEASE\DRAGGENERATOR.OBJ|C:\FH\PHS\PARTICLE\SPRING\PARTICLE\RELEASE\FORCEGENERATOR.OBJ|C:\FH\PHS\PARTICLE\SPRING\PARTICLE\RELEASE\GRAVITYGENERATOR.OBJ|C:\FH\PHS\PARTICLE\SPRING\PARTICLE\RELEASE\INTEGRATOR.OBJ|C:\FH\PHS\PARTICLE\SPRING\PARTICLE\RELEASE\MAIN.OBJ|C:\FH\PHS\PARTICLE\SPRING\PARTICLE\RELEASE\PARTICLE.OBJ|C:\FH\PHS\PARTICLE\SPRING\PARTICLE\RELEASE\SPRING.OBJ|C:\FH\PHS\PARTICLE\SPRING\PARTICLE\RELEASE\STDAFX.OBJ
C:\WINDOWS\GLOBALIZATION\SORTING\SORTDEFAULT.NLS
C:\PROGRAM FILES (X86)\WINDOWS KITS\8.0\LIB\WIN8\UM\X86\KERNEL32.LIB
C:\PROGRAM FILES (X86)\WINDOWS KITS\8.0\LIB\WIN8\UM\X86\USER32.LIB
C:\PROGRAM FILES (X86)\WINDOWS KITS\8.0\LIB\WIN8\UM\X86\GDI32.LIB
C:\PROGRAM FILES (X86)\WINDOWS KITS\8.0\LIB\WIN8\UM\X86\WINSPOOL.LIB
C:\PROGRAM FILES (X86)\WINDOWS KITS\8.0\LIB\WIN8\UM\X86\COMDLG32.LIB
C:\PROGRAM FILES (X86)\WINDOWS KITS\8.0\LIB\WIN8\UM\X86\ADVAPI32.LIB
C:\PROGRAM FILES (X86)\WINDOWS KITS\8.0\LIB\WIN8\UM\X86\SHELL32.LIB
C:\PROGRAM FILES (X86)\WINDOWS KITS\8.0\LIB\WIN8\UM\X86\OLE32.LIB
C:\PROGRAM FILES (X86)\WINDOWS KITS\8.0\LIB\WIN8\UM\X86\OLEAUT32.LIB
C:\PROGRAM FILES (X86)\WINDOWS KITS\8.0\LIB\WIN8\UM\X86\UUID.LIB
C:\PROGRAM FILES (X86)\WINDOWS KITS\8.0\LIB\WIN8\UM\X86\ODBC32.LIB
C:\PROGRAM FILES (X86)\WINDOWS KITS\8.0\LIB\WIN8\UM\X86\ODBCCP32.LIB
C:\FH\PHS\PARTICLE\SPRING\PARTICLE\RELEASE\DRAGGENERATOR.OBJ
C:\FH\PHS\PARTICLE\SPRING\PARTICLE\RELEASE\FORCEGENERATOR.OBJ
C:\FH\PHS\PARTICLE\SPRING\PARTICLE\RELEASE\GRAVITYGENERATOR.OBJ
C:\FH\PHS\PARTICLE\SPRING\PARTICLE\RELEASE\INTEGRATOR.OBJ
C:\FH\PHS\PARTICLE\SPRING\PARTICLE\RELEASE\MAIN.OBJ
C:\FH\PHS\PARTICLE\SPRING\PARTICLE\RELEASE\PARTICLE.OBJ
C:\FH\PHS\PARTICLE\SPRING\PARTICLE\RELEASE\SPRING.OBJ
C:\FH\PHS\PARTICLE\SPRING\PARTICLE\RELEASE\STDAFX.OBJ
C:\PROGRAM FILES (X86)\MICROSOFT VISUAL STUDIO 11.0\VC\BIN\C2.DLL
C:\PROGRAM FILES (X86)\MICROSOFT VISUAL STUDIO 11.0\VC\LIB\LIBCPMTD.LIB
C:\USERS\CHRONSTER\DOCUMENTS\VISUAL STUDIO 2012\CLANLIB 3.0.0\LIB\WIN32\CLANCORE-STATIC-MT-DEBUG.LIB
C:\USERS\CHRONSTER\DOCUMENTS\VISUAL STUDIO 2012\CLANLIB 3.0.0\LIB\WIN32\CLANAPP-STATIC-MT-DEBUG.LIB
C:\USERS\CHRONSTER\DOCUMENTS\VISUAL STUDIO 2012\CLANLIB 3.0.0\LIB\WIN32\CLANDISPLAY-STATIC-MT-DEBUG.LIB
C:\PROGRAM FILES (X86)\WINDOWS KITS\8.0\LIB\WIN8\UM\X86\WINMM.LIB
C:\PROGRAM FILES (X86)\MICROSOFT VISUAL STUDIO 11.0\VC\LIB\LIBCMTD.LIB
C:\PROGRAM FILES (X86)\MICROSOFT VISUAL STUDIO 11.0\VC\LIB\OLDNAMES.LIB
C:\USERS\CHRONSTER\DOCUMENTS\VISUAL STUDIO 2012\CLANLIB 3.0.0\LIB\WIN32\CLANGL-STATIC-MT-DEBUG.LIB
C:\PROGRAM FILES (X86)\WINDOWS KITS\8.0\LIB\WIN8\UM\X86\OPENGL32.LIB
C:\PROGRAM FILES (X86)\WINDOWS KITS\8.0\LIB\WIN8\UM\X86\GLU32.LIB
C:\PROGRAM FILES (X86)\WINDOWS KITS\8.0\LIB\WIN8\UM\X86\DBGHELP.LIB
C:\PROGRAM FILES (X86)\WINDOWS KITS\8.0\LIB\WIN8\UM\X86\COMCTL32.LIB
C:\PROGRAM FILES (X86)\MICROSOFT VISUAL STUDIO 11.0\VC\BIN\1033\LINKUI.DLL
C:\PROGRAM FILES (X86)\WINDOWS KITS\8.0\BIN\X86\RC.EXE
C:\PROGRAM FILES (X86)\MICROSOFT VISUAL STUDIO 11.0\VC\BIN\CVTRES.EXE
C:\WINDOWS\SYSTEM32\TZRES.DLL
